{
    "KPlugin": {
        "Authors": [
            {
                "Email": "joris.guisson@gmail.com, ivasic@gmail.com",
                "Name": "Joris Guisson, Ivan Vasic",
                "Name[bg]": "Joris Guisson, Ivan Vasic",
                "Name[ca@valencia]": "Joris Guisson, Ivan Vasic",
                "Name[ca]": "Joris Guisson, Ivan Vasic",
                "Name[cs]": "Joris Guisson, Ivan Vasic",
                "Name[de]": "Joris Guisson, Ivan Vasic",
                "Name[en_GB]": "Joris Guisson, Ivan Vasic",
                "Name[eo]": "Joris Guisson, Ivan Vasic",
                "Name[es]": "Joris Guisson, Ivan Vasic",
                "Name[eu]": "Joris Guisson, Ivan Vasic",
                "Name[fi]": "Joris Guisson, Ivan Vasic",
                "Name[fr]": "Joris Guisson, Ivan Vasic",
                "Name[gl]": "Joris Guisson, Ivan Vasic",
                "Name[hu]": "Joris Guisson, Ivan Vasic",
                "Name[ia]": "Joris Guisson, Ivan Vasic",
                "Name[it]": "Joris Guisson, Ivan Vasic",
                "Name[ka]": "Joris Guisson, Ivan Vasic",
                "Name[ko]": "Joris Guisson, Ivan Vasic",
                "Name[nl]": "Joris Guisson, Ivan Vasic",
                "Name[pl]": "Joris Guisson, Ivan Vasic",
                "Name[pt]": "Joris Guisson, Ivan Vasic",
                "Name[pt_BR]": "Joris Guisson, Ivan Vasic",
                "Name[ru]": "Joris Guisson, Ivan Vasic",
                "Name[sk]": "Joris Guisson, Ivan Vasic",
                "Name[sl]": "Joris Guisson, Ivan Vasic",
                "Name[sv]": "Joris Guisson, Ivan Vasic",
                "Name[tr]": "Joris Guisson, Ivan Vasic",
                "Name[uk]": "Joris Guisson, Ivan Vasic",
                "Name[x-test]": "xxJoris Guisson, Ivan Vasicxx",
                "Name[zh_CN]": "Joris Guisson、Ivan Vasic"
            }
        ],
        "Description": "Schedule upload and download limits over a period of a week",
        "Description[bg]": "Планиране на лимити за качване и изтегляне за период от една седмица",
        "Description[ca@valencia]": "Planifica els límits de pujada i baixada durant un període setmanal",
        "Description[ca]": "Planifica els límits de pujada i baixada durant un període setmanal",
        "Description[cs]": "Naplánování odesílacích a stahovacích limitů během týdne",
        "Description[de]": "Upload- und Downloadbegrenzungen über den Zeitraum von einer Woche planen",
        "Description[en_GB]": "Schedule upload and download limits over a period of a week",
        "Description[eo]": "Plani alŝutajn kaj elŝutajn limojn dum daŭro de semajno",
        "Description[es]": "Planifique los límites de envío y descarga durante un periodo de una semana",
        "Description[eu]": "Antolatu zama-igotzeko eta -jaisteko mugak astebeteko tartean",
        "Description[fi]": "Ajasta viikoittaiset lähetys- ja latausrajoitukset",
        "Description[fr]": "Planifie des limites pour les envois et les téléchargement sur une période d'une semaine",
        "Description[gl]": "Planificar os límites de envío e descarga dun período semanal.",
        "Description[hu]": "Feltöltési és letöltési korlátok ütemezése egyhetes időszakra",
        "Description[ia]": "Planifica limites de incargr e discargar sur un periodo de un septimana",
        "Description[it]": "Pianifica i limiti di invio e scaricamento a livello settimanale",
        "Description[ka]": "ატვირთვისა ად გადმოწერის ლიმიტების დაგეგმვა კვირის განმავლობაში",
        "Description[ko]": "매 주의 특정 시간마다 업로드와 다운로드 제한 예약",
        "Description[nl]": "Plannen van upload- en download-limieten over een periode van een week",
        "Description[pl]": "Tygodniowe planowanie szybkości wysyłania i pobierania plików",
        "Description[pt]": "Agendar os limites de envio e recepção durante o período de uma semana",
        "Description[pt_BR]": "Agenda os limites de download e envio, no período de uma semana",
        "Description[ru]": "Позволяет устанавливать разные скоростные ограничения в разное время дня/недели",
        "Description[sk]": "Naplánovanie limitov odosielania a sťahovania počas obdobia týždňa",
        "Description[sl]": "Razporedi omejitve hitrosti prenosov sem in tja tekom tedna",
        "Description[sv]": "Schemalägg uppladdnings- och nerladdningsgränser under en veckoperiod",
        "Description[tr]": "Bir haftalık periyotlarla gönderme ve indirme sınırlarını zamanla",
        "Description[uk]": "Додаток для складання розкладу обмежень на отримання на тиждень",
        "Description[x-test]": "xxSchedule upload and download limits over a period of a weekxx",
        "Description[zh_CN]": "安排一周内的上传和下载限制",
        "EnabledByDefault": false,
        "Icon": "kt-bandwidth-scheduler",
        "Id": "BandwidthSchedulerPlugin",
        "License": "GPL",
        "Name": "Scheduler",
        "Name[bg]": "Разписание",
        "Name[bs]": "Raspoređivač",
        "Name[ca@valencia]": "Planificador",
        "Name[ca]": "Planificador",
        "Name[cs]": "Plánovač",
        "Name[da]": "Skemalægning",
        "Name[de]": "Bandbreitenplaner",
        "Name[el]": "Χρονοπρογραμματιστής",
        "Name[en_GB]": "Scheduler",
        "Name[eo]": "Planilo",
        "Name[es]": "Planificador",
        "Name[et]": "Ajastaja",
        "Name[eu]": "Antolatzailea",
        "Name[fi]": "Ajastin",
        "Name[fr]": "Planificateur",
        "Name[ga]": "Sceidealóir",
        "Name[gl]": "Planificador",
        "Name[hu]": "Ütemező",
        "Name[ia]": "Planificator",
        "Name[it]": "Pianificatore",
        "Name[ka]": "დამგეგმავი",
        "Name[kk]": "Жоспарлағыш",
        "Name[km]": "កម្មវិធី​រៀបចំ​ពេលវេលា",
        "Name[ko]": "스케줄러",
        "Name[lt]": "Planuotojas",
        "Name[mr]": "नियोजक",
        "Name[nb]": "Tidsplanlegger",
        "Name[nds]": "Planer",
        "Name[nl]": "Planner",
        "Name[nn]": "Planleggjar",
        "Name[pl]": "Planista",
        "Name[pt]": "Escalonador",
        "Name[pt_BR]": "Agendador",
        "Name[ro]": "Programare",
        "Name[ru]": "Расписание загрузок",
        "Name[si]": "කාලසටහන්කරු",
        "Name[sk]": "Plánovač",
        "Name[sl]": "Razporejevalnik",
        "Name[sr@ijekavian]": "Распоређивач",
        "Name[sr@ijekavianlatin]": "Raspoređivač",
        "Name[sr@latin]": "Raspoređivač",
        "Name[sr]": "Распоређивач",
        "Name[sv]": "Schemaläggning",
        "Name[tr]": "Zamanlayıcı",
        "Name[ug]": "پىلانچى",
        "Name[uk]": "Планування",
        "Name[x-test]": "xxSchedulerxx",
        "Name[zh_CN]": "调度器",
        "Name[zh_TW]": "排程器",
        "Version": "0.1",
        "Website": "http://kde.org/applications/internet/ktorrent/"
    }
}
