{
    "KPlugin": {
        "Authors": [
            {
                "Email": "jonas@gannon.se",
                "Name": "Jonas Lundqvist",
                "Name[bg]": "Jonas Lundqvist",
                "Name[ca@valencia]": "Jonas Lundqvist",
                "Name[ca]": "Jonas Lundqvist",
                "Name[cs]": "Jonas Lundqvist",
                "Name[de]": "Jonas Lundqvist",
                "Name[en_GB]": "Jonas Lundqvist",
                "Name[eo]": "Jonas Lundqvist",
                "Name[es]": "Jonas Lundqvist",
                "Name[eu]": "Jonas Lundqvist",
                "Name[fi]": "Jonas Lundqvist",
                "Name[fr]": "Jonas Lundqvist",
                "Name[gl]": "Jonas Lundqvist",
                "Name[hu]": "Jonas Lundqvist",
                "Name[ia]": "Jonas Lundqvist",
                "Name[it]": "Jonas Lundqvist",
                "Name[ka]": "Jonas Lundqvist",
                "Name[ko]": "Jonas Lundqvist",
                "Name[nl]": "Jonas Lundqvist",
                "Name[pl]": "Jonas Lundqvist",
                "Name[pt]": "Jonas Lundqvist",
                "Name[pt_BR]": "Jonas Lundqvist",
                "Name[ru]": "Jonas Lundqvist",
                "Name[sk]": "Jonas Lundqvist",
                "Name[sl]": "Jonas Lundqvist",
                "Name[sv]": "Jonas Lundqvist",
                "Name[tr]": "Jonas Lundqvist",
                "Name[uk]": "Jonas Lundqvist",
                "Name[x-test]": "xxJonas Lundqvistxx",
                "Name[zh_CN]": "Jonas Lundqvist"
            }
        ],
        "Description": "Generates magnet links",
        "Description[bg]": "Създаване на магнитни връзки",
        "Description[ca@valencia]": "Genera enllaços magnet",
        "Description[ca]": "Genera enllaços magnet",
        "Description[cs]": "Generuje odkazy magnet",
        "Description[de]": "Erzeugt Magnet-Verknüpfungen",
        "Description[en_GB]": "Generates magnet links",
        "Description[eo]": "Generas Magnet-ligilojn",
        "Description[es]": "Genera enlaces magnéticos",
        "Description[eu]": "Iman-estekak sortzen ditu",
        "Description[fi]": "Luo Magnet-linkkejä",
        "Description[fr]": "Génère des liens « Magnet »",
        "Description[gl]": "Xera ligazóns magnet.",
        "Description[hu]": "Magnet-hivatkozások generálása",
        "Description[it]": "Genera collegamenti magnet",
        "Description[ka]": "მაგნიტური ბმულების შექმნა",
        "Description[ko]": "마그넷 링크 생성",
        "Description[nl]": "Genereert magneetlinks",
        "Description[pl]": "Tworzy łącza magnet",
        "Description[pt]": "Gera hiperligações Magnet",
        "Description[pt_BR]": "Gera links magnéticos",
        "Description[ru]": "Создаёт magnet-ссылки",
        "Description[sk]": "Generuje magnet odkazy",
        "Description[sl]": "Ustvari magnetne povezave",
        "Description[sv]": "Skapar magnetiska länkar",
        "Description[tr]": "Mıknatıs bağlantıları üretir",
        "Description[uk]": "Створює посилання magnet",
        "Description[x-test]": "xxGenerates magnet linksxx",
        "Description[zh_CN]": "生成磁力链",
        "EnabledByDefault": false,
        "Icon": "kt-magnet",
        "Id": "MagnetGeneratorPlugin",
        "License": "GPL",
        "Name": "Magnet Generator",
        "Name[bg]": "Генератор на магнитни връзки",
        "Name[bs]": "Generator magneta",
        "Name[ca@valencia]": "Generador de magnet",
        "Name[ca]": "Generador de magnet",
        "Name[cs]": "Generátor Magnet",
        "Name[da]": "Magnet-generator",
        "Name[de]": "Magnet-Generator",
        "Name[el]": "Magnet Generator",
        "Name[en_GB]": "Magnet Generator",
        "Name[eo]": "Magnet-Generatoro",
        "Name[es]": "Generador magnético",
        "Name[et]": "Magnetlinkide looja",
        "Name[eu]": "Iman sortzailea",
        "Name[fi]": "Magnet-generoija",
        "Name[fr]": "Générateur de liens « Magnet »",
        "Name[ga]": "Gineadóir Maighnéad",
        "Name[gl]": "Xerador de magnets",
        "Name[hu]": "Magnet-generátor",
        "Name[is]": "Magnet tilbúningur",
        "Name[it]": "Generatore Magnet",
        "Name[ka]": "მაგნიტის გენერატორი",
        "Name[kk]": "Магнит құрғышы",
        "Name[km]": "កម្មវិធី​បង្កើត Generator",
        "Name[ko]": "마그넷 링크 생성기",
        "Name[lt]": "Magnetų generatorius",
        "Name[nb]": "Magnet-generator",
        "Name[nds]": "Magnetmaker",
        "Name[nl]": "Magneet-generator",
        "Name[pl]": "Generator Magnet",
        "Name[pt]": "Gerador de Magnet",
        "Name[pt_BR]": "Gerador de magnético",
        "Name[ro]": "Generator Magnet",
        "Name[ru]": "Генератор magnet-ссылок",
        "Name[si]": "චුම්භක ජනකය",
        "Name[sk]": "Magnet Generátor",
        "Name[sl]": "Ustvarjalnik Magnet-ov",
        "Name[sr@ijekavian]": "Генератор магнета",
        "Name[sr@ijekavianlatin]": "Generator magneta",
        "Name[sr@latin]": "Generator magneta",
        "Name[sr]": "Генератор магнета",
        "Name[sv]": "Magnetgenerering",
        "Name[tr]": "Mıknatıs Üreticisi",
        "Name[ug]": "ماگنىت ھاسىللىغۇچ",
        "Name[uk]": "Породжувач Magnet",
        "Name[x-test]": "xxMagnet Generatorxx",
        "Name[zh_CN]": "磁力链生成器",
        "Name[zh_TW]": "Magnet 產生器",
        "Version": "0.1",
        "Website": "http://kde.org/applications/internet/ktorrent/"
    }
}
